<?xml version="1.0" standalone="no"?>
<!DOCTYPE svg PUBLIC "-//W3C//DTD SVG 1.1//EN" "http://www.w3.org/Graphics/SVG/1.1/DTD/svg11.dtd">
<svg width="340" height="680" viewBox="-100 -580 340 680" xmlns="http://www.w3.org/2000/svg" version="1.1">
<title>OpenSCAD Model</title>
<path d="
M 80,-500 L 240,-500 L 240,-580 L 0,-580 L 0,-50 L 80,-0
 z
M 147,-550 L 147,-565 L 150,-565 L 150,-550 z
M 227,-550 L 227,-565 L 230,-565 L 230,-550 z
M 127.906,-541.503 L 127.719,-541.527 L 127.536,-541.573 L 127.361,-541.643 L 127.196,-541.734 L 127.044,-541.844
 L 126.907,-541.973 L 126.786,-542.118 L 126.686,-542.277 L 126.605,-542.448 L 126.547,-542.627 L 126.512,-542.812
 L 126.5,-543 L 126.512,-543.188 L 126.547,-543.373 L 126.605,-543.552 L 126.686,-543.723 L 126.786,-543.882
 L 126.907,-544.027 L 127.044,-544.156 L 127.196,-544.266 L 127.361,-544.357 L 127.536,-544.427 L 127.719,-544.473
 L 127.906,-544.497 L 128.094,-544.497 L 128.281,-544.473 L 128.464,-544.427 L 128.639,-544.357 L 128.804,-544.266
 L 128.956,-544.156 L 129.093,-544.027 L 129.214,-543.882 L 129.314,-543.723 L 129.395,-543.552 L 129.453,-543.373
 L 129.488,-543.188 L 129.5,-543 L 129.488,-542.812 L 129.453,-542.627 L 129.395,-542.448 L 129.314,-542.277
 L 129.214,-542.118 L 129.093,-541.973 L 128.956,-541.844 L 128.804,-541.734 L 128.639,-541.643 L 128.464,-541.573
 L 128.281,-541.527 L 128.094,-541.503 z
M 121.906,-541.503 L 121.719,-541.527 L 121.536,-541.573 L 121.361,-541.643 L 121.196,-541.734 L 121.044,-541.844
 L 120.907,-541.973 L 120.786,-542.118 L 120.686,-542.277 L 120.605,-542.448 L 120.547,-542.627 L 120.512,-542.812
 L 120.5,-543 L 120.512,-543.188 L 120.547,-543.373 L 120.605,-543.552 L 120.686,-543.723 L 120.786,-543.882
 L 120.907,-544.027 L 121.044,-544.156 L 121.196,-544.266 L 121.361,-544.357 L 121.536,-544.427 L 121.719,-544.473
 L 121.906,-544.497 L 122.094,-544.497 L 122.281,-544.473 L 122.464,-544.427 L 122.639,-544.357 L 122.804,-544.266
 L 122.956,-544.156 L 123.093,-544.027 L 123.214,-543.882 L 123.314,-543.723 L 123.395,-543.552 L 123.453,-543.373
 L 123.488,-543.188 L 123.5,-543 L 123.488,-542.812 L 123.453,-542.627 L 123.395,-542.448 L 123.314,-542.277
 L 123.214,-542.118 L 123.093,-541.973 L 122.956,-541.844 L 122.804,-541.734 L 122.639,-541.643 L 122.464,-541.573
 L 122.281,-541.527 L 122.094,-541.503 z
M 222.906,-541.503 L 222.719,-541.527 L 222.536,-541.573 L 222.361,-541.643 L 222.196,-541.734 L 222.044,-541.844
 L 221.907,-541.973 L 221.786,-542.118 L 221.686,-542.277 L 221.605,-542.448 L 221.547,-542.627 L 221.512,-542.812
 L 221.5,-543 L 221.512,-543.188 L 221.547,-543.373 L 221.605,-543.552 L 221.686,-543.723 L 221.786,-543.882
 L 221.907,-544.027 L 222.044,-544.156 L 222.196,-544.266 L 222.361,-544.357 L 222.536,-544.427 L 222.719,-544.473
 L 222.906,-544.497 L 223.094,-544.497 L 223.281,-544.473 L 223.464,-544.427 L 223.639,-544.357 L 223.804,-544.266
 L 223.956,-544.156 L 224.093,-544.027 L 224.214,-543.882 L 224.314,-543.723 L 224.395,-543.552 L 224.453,-543.373
 L 224.488,-543.188 L 224.5,-543 L 224.488,-542.812 L 224.453,-542.627 L 224.395,-542.448 L 224.314,-542.277
 L 224.214,-542.118 L 224.093,-541.973 L 223.956,-541.844 L 223.804,-541.734 L 223.639,-541.643 L 223.464,-541.573
 L 223.281,-541.527 L 223.094,-541.503 z
M 216.906,-541.503 L 216.719,-541.527 L 216.536,-541.573 L 216.361,-541.643 L 216.196,-541.734 L 216.044,-541.844
 L 215.907,-541.973 L 215.786,-542.118 L 215.686,-542.277 L 215.605,-542.448 L 215.547,-542.627 L 215.512,-542.812
 L 215.5,-543 L 215.512,-543.188 L 215.547,-543.373 L 215.605,-543.552 L 215.686,-543.723 L 215.786,-543.882
 L 215.907,-544.027 L 216.044,-544.156 L 216.196,-544.266 L 216.361,-544.357 L 216.536,-544.427 L 216.719,-544.473
 L 216.906,-544.497 L 217.094,-544.497 L 217.281,-544.473 L 217.464,-544.427 L 217.639,-544.357 L 217.804,-544.266
 L 217.956,-544.156 L 218.093,-544.027 L 218.214,-543.882 L 218.314,-543.723 L 218.395,-543.552 L 218.453,-543.373
 L 218.488,-543.188 L 218.5,-543 L 218.488,-542.812 L 218.453,-542.627 L 218.395,-542.448 L 218.314,-542.277
 L 218.214,-542.118 L 218.093,-541.973 L 217.956,-541.844 L 217.804,-541.734 L 217.639,-541.643 L 217.464,-541.573
 L 217.281,-541.527 L 217.094,-541.503 z
M 127.906,-535.503 L 127.719,-535.527 L 127.536,-535.573 L 127.361,-535.643 L 127.196,-535.734 L 127.044,-535.844
 L 126.907,-535.973 L 126.786,-536.118 L 126.686,-536.277 L 126.605,-536.448 L 126.547,-536.627 L 126.512,-536.812
 L 126.5,-537 L 126.512,-537.188 L 126.547,-537.373 L 126.605,-537.552 L 126.686,-537.723 L 126.786,-537.882
 L 126.907,-538.027 L 127.044,-538.156 L 127.196,-538.266 L 127.361,-538.357 L 127.536,-538.427 L 127.719,-538.473
 L 127.906,-538.497 L 128.094,-538.497 L 128.281,-538.473 L 128.464,-538.427 L 128.639,-538.357 L 128.804,-538.266
 L 128.956,-538.156 L 129.093,-538.027 L 129.214,-537.882 L 129.314,-537.723 L 129.395,-537.552 L 129.453,-537.373
 L 129.488,-537.188 L 129.5,-537 L 129.488,-536.812 L 129.453,-536.627 L 129.395,-536.448 L 129.314,-536.277
 L 129.214,-536.118 L 129.093,-535.973 L 128.956,-535.844 L 128.804,-535.734 L 128.639,-535.643 L 128.464,-535.573
 L 128.281,-535.527 L 128.094,-535.503 z
M 121.906,-535.503 L 121.719,-535.527 L 121.536,-535.573 L 121.361,-535.643 L 121.196,-535.734 L 121.044,-535.844
 L 120.907,-535.973 L 120.786,-536.118 L 120.686,-536.277 L 120.605,-536.448 L 120.547,-536.627 L 120.512,-536.812
 L 120.5,-537 L 120.512,-537.188 L 120.547,-537.373 L 120.605,-537.552 L 120.686,-537.723 L 120.786,-537.882
 L 120.907,-538.027 L 121.044,-538.156 L 121.196,-538.266 L 121.361,-538.357 L 121.536,-538.427 L 121.719,-538.473
 L 121.906,-538.497 L 122.094,-538.497 L 122.281,-538.473 L 122.464,-538.427 L 122.639,-538.357 L 122.804,-538.266
 L 122.956,-538.156 L 123.093,-538.027 L 123.214,-537.882 L 123.314,-537.723 L 123.395,-537.552 L 123.453,-537.373
 L 123.488,-537.188 L 123.5,-537 L 123.488,-536.812 L 123.453,-536.627 L 123.395,-536.448 L 123.314,-536.277
 L 123.214,-536.118 L 123.093,-535.973 L 122.956,-535.844 L 122.804,-535.734 L 122.639,-535.643 L 122.464,-535.573
 L 122.281,-535.527 L 122.094,-535.503 z
M 222.906,-535.503 L 222.719,-535.527 L 222.536,-535.573 L 222.361,-535.643 L 222.196,-535.734 L 222.044,-535.844
 L 221.907,-535.973 L 221.786,-536.118 L 221.686,-536.277 L 221.605,-536.448 L 221.547,-536.627 L 221.512,-536.812
 L 221.5,-537 L 221.512,-537.188 L 221.547,-537.373 L 221.605,-537.552 L 221.686,-537.723 L 221.786,-537.882
 L 221.907,-538.027 L 222.044,-538.156 L 222.196,-538.266 L 222.361,-538.357 L 222.536,-538.427 L 222.719,-538.473
 L 222.906,-538.497 L 223.094,-538.497 L 223.281,-538.473 L 223.464,-538.427 L 223.639,-538.357 L 223.804,-538.266
 L 223.956,-538.156 L 224.093,-538.027 L 224.214,-537.882 L 224.314,-537.723 L 224.395,-537.552 L 224.453,-537.373
 L 224.488,-537.188 L 224.5,-537 L 224.488,-536.812 L 224.453,-536.627 L 224.395,-536.448 L 224.314,-536.277
 L 224.214,-536.118 L 224.093,-535.973 L 223.956,-535.844 L 223.804,-535.734 L 223.639,-535.643 L 223.464,-535.573
 L 223.281,-535.527 L 223.094,-535.503 z
M 216.906,-535.503 L 216.719,-535.527 L 216.536,-535.573 L 216.361,-535.643 L 216.196,-535.734 L 216.044,-535.844
 L 215.907,-535.973 L 215.786,-536.118 L 215.686,-536.277 L 215.605,-536.448 L 215.547,-536.627 L 215.512,-536.812
 L 215.5,-537 L 215.512,-537.188 L 215.547,-537.373 L 215.605,-537.552 L 215.686,-537.723 L 215.786,-537.882
 L 215.907,-538.027 L 216.044,-538.156 L 216.196,-538.266 L 216.361,-538.357 L 216.536,-538.427 L 216.719,-538.473
 L 216.906,-538.497 L 217.094,-538.497 L 217.281,-538.473 L 217.464,-538.427 L 217.639,-538.357 L 217.804,-538.266
 L 217.956,-538.156 L 218.093,-538.027 L 218.214,-537.882 L 218.314,-537.723 L 218.395,-537.552 L 218.453,-537.373
 L 218.488,-537.188 L 218.5,-537 L 218.488,-536.812 L 218.453,-536.627 L 218.395,-536.448 L 218.314,-536.277
 L 218.214,-536.118 L 218.093,-535.973 L 217.956,-535.844 L 217.804,-535.734 L 217.639,-535.643 L 217.464,-535.573
 L 217.281,-535.527 L 217.094,-535.503 z
M 147,-515 L 147,-530 L 150,-530 L 150,-515 z
M 227,-515 L 227,-530 L 230,-530 L 230,-515 z
M 39.8744,-478.004 L 39.6252,-478.035 L 39.382,-478.098 L 39.1484,-478.19 L 38.9283,-478.311 L 38.7251,-478.459
 L 38.5421,-478.631 L 38.382,-478.824 L 38.2474,-479.036 L 38.1404,-479.264 L 38.0628,-479.503 L 38.0158,-479.749
 L 38,-480 L 38.0158,-480.251 L 38.0628,-480.497 L 38.1404,-480.736 L 38.2474,-480.964 L 38.382,-481.176
 L 38.5421,-481.369 L 38.7251,-481.541 L 38.9283,-481.689 L 39.1484,-481.81 L 39.382,-481.902 L 39.6252,-481.965
 L 39.8744,-481.996 L 40.1256,-481.996 L 40.3748,-481.965 L 40.618,-481.902 L 40.8515,-481.81 L 41.0716,-481.689
 L 41.2748,-481.541 L 41.4579,-481.369 L 41.618,-481.176 L 41.7526,-480.964 L 41.8595,-480.736 L 41.9372,-480.497
 L 41.9842,-480.251 L 42,-480 L 41.9842,-479.749 L 41.9372,-479.503 L 41.8595,-479.264 L 41.7526,-479.036
 L 41.618,-478.824 L 41.4579,-478.631 L 41.2748,-478.459 L 41.0716,-478.311 L 40.8515,-478.19 L 40.618,-478.098
 L 40.3748,-478.035 L 40.1256,-478.004 z
M 39.8744,-258.004 L 39.6252,-258.035 L 39.382,-258.098 L 39.1484,-258.19 L 38.9283,-258.311 L 38.7251,-258.459
 L 38.5421,-258.631 L 38.382,-258.824 L 38.2474,-259.036 L 38.1404,-259.264 L 38.0628,-259.503 L 38.0158,-259.749
 L 38,-260 L 38.0158,-260.251 L 38.0628,-260.497 L 38.1404,-260.736 L 38.2474,-260.964 L 38.382,-261.176
 L 38.5421,-261.369 L 38.7251,-261.541 L 38.9283,-261.689 L 39.1484,-261.81 L 39.382,-261.902 L 39.6252,-261.965
 L 39.8744,-261.996 L 40.1256,-261.996 L 40.3748,-261.965 L 40.618,-261.902 L 40.8515,-261.81 L 41.0716,-261.689
 L 41.2748,-261.541 L 41.4579,-261.369 L 41.618,-261.176 L 41.7526,-260.964 L 41.8595,-260.736 L 41.9372,-260.497
 L 41.9842,-260.251 L 42,-260 L 41.9842,-259.749 L 41.9372,-259.503 L 41.8595,-259.264 L 41.7526,-259.036
 L 41.618,-258.824 L 41.4579,-258.631 L 41.2748,-258.459 L 41.0716,-258.311 L 40.8515,-258.19 L 40.618,-258.098
 L 40.3748,-258.035 L 40.1256,-258.004 z
M 39.8744,-58.0039 L 39.6252,-58.0354 L 39.382,-58.0979 L 39.1484,-58.1903 L 38.9283,-58.3113 L 38.7251,-58.459
 L 38.5421,-58.6309 L 38.382,-58.8244 L 38.2474,-59.0365 L 38.1404,-59.2637 L 38.0628,-59.5026 L 38.0158,-59.7493
 L 38,-60 L 38.0158,-60.2507 L 38.0628,-60.4974 L 38.1404,-60.7362 L 38.2474,-60.9635 L 38.382,-61.1756
 L 38.5421,-61.3691 L 38.7251,-61.541 L 38.9283,-61.6886 L 39.1484,-61.8096 L 39.382,-61.9021 L 39.6252,-61.9646
 L 39.8744,-61.996 L 40.1256,-61.996 L 40.3748,-61.9646 L 40.618,-61.9021 L 40.8515,-61.8096 L 41.0716,-61.6886
 L 41.2748,-61.541 L 41.4579,-61.3691 L 41.618,-61.1756 L 41.7526,-60.9635 L 41.8595,-60.7362 L 41.9372,-60.4974
 L 41.9842,-60.2507 L 42,-60 L 41.9842,-59.7493 L 41.9372,-59.5026 L 41.8595,-59.2637 L 41.7526,-59.0365
 L 41.618,-58.8244 L 41.4579,-58.6309 L 41.2748,-58.459 L 41.0716,-58.3113 L 40.8515,-58.1903 L 40.618,-58.0979
 L 40.3748,-58.0354 L 40.1256,-58.0039 z
M -10,-580 L -100,-580 L -100,-50 L -10,-0 z
M -50.1256,-478.004 L -50.3748,-478.035 L -50.618,-478.098 L -50.8516,-478.19 L -51.0717,-478.311 L -51.2749,-478.459
 L -51.4579,-478.631 L -51.618,-478.824 L -51.7526,-479.036 L -51.8596,-479.264 L -51.9372,-479.503 L -51.9842,-479.749
 L -52,-480 L -51.9842,-480.251 L -51.9372,-480.497 L -51.8596,-480.736 L -51.7526,-480.964 L -51.618,-481.176
 L -51.4579,-481.369 L -51.2749,-481.541 L -51.0717,-481.689 L -50.8516,-481.81 L -50.618,-481.902 L -50.3748,-481.965
 L -50.1256,-481.996 L -49.8744,-481.996 L -49.6252,-481.965 L -49.382,-481.902 L -49.1485,-481.81 L -48.9284,-481.689
 L -48.7252,-481.541 L -48.5421,-481.369 L -48.382,-481.176 L -48.2474,-480.964 L -48.1405,-480.736 L -48.0628,-480.497
 L -48.0158,-480.251 L -48,-480 L -48.0158,-479.749 L -48.0628,-479.503 L -48.1405,-479.264 L -48.2474,-479.036
 L -48.382,-478.824 L -48.5421,-478.631 L -48.7252,-478.459 L -48.9284,-478.311 L -49.1485,-478.19 L -49.382,-478.098
 L -49.6252,-478.035 L -49.8744,-478.004 z
M -50.1256,-258.004 L -50.3748,-258.035 L -50.618,-258.098 L -50.8516,-258.19 L -51.0717,-258.311 L -51.2749,-258.459
 L -51.4579,-258.631 L -51.618,-258.824 L -51.7526,-259.036 L -51.8596,-259.264 L -51.9372,-259.503 L -51.9842,-259.749
 L -52,-260 L -51.9842,-260.251 L -51.9372,-260.497 L -51.8596,-260.736 L -51.7526,-260.964 L -51.618,-261.176
 L -51.4579,-261.369 L -51.2749,-261.541 L -51.0717,-261.689 L -50.8516,-261.81 L -50.618,-261.902 L -50.3748,-261.965
 L -50.1256,-261.996 L -49.8744,-261.996 L -49.6252,-261.965 L -49.382,-261.902 L -49.1485,-261.81 L -48.9284,-261.689
 L -48.7252,-261.541 L -48.5421,-261.369 L -48.382,-261.176 L -48.2474,-260.964 L -48.1405,-260.736 L -48.0628,-260.497
 L -48.0158,-260.251 L -48,-260 L -48.0158,-259.749 L -48.0628,-259.503 L -48.1405,-259.264 L -48.2474,-259.036
 L -48.382,-258.824 L -48.5421,-258.631 L -48.7252,-258.459 L -48.9284,-258.311 L -49.1485,-258.19 L -49.382,-258.098
 L -49.6252,-258.035 L -49.8744,-258.004 z
M -50.1256,-58.0039 L -50.3748,-58.0354 L -50.618,-58.0979 L -50.8516,-58.1903 L -51.0717,-58.3113 L -51.2749,-58.459
 L -51.4579,-58.6309 L -51.618,-58.8244 L -51.7526,-59.0365 L -51.8596,-59.2637 L -51.9372,-59.5026 L -51.9842,-59.7493
 L -52,-60 L -51.9842,-60.2507 L -51.9372,-60.4974 L -51.8596,-60.7362 L -51.7526,-60.9635 L -51.618,-61.1756
 L -51.4579,-61.3691 L -51.2749,-61.541 L -51.0717,-61.6886 L -50.8516,-61.8096 L -50.618,-61.9021 L -50.3748,-61.9646
 L -50.1256,-61.996 L -49.8744,-61.996 L -49.6252,-61.9646 L -49.382,-61.9021 L -49.1485,-61.8096 L -48.9284,-61.6886
 L -48.7252,-61.541 L -48.5421,-61.3691 L -48.382,-61.1756 L -48.2474,-60.9635 L -48.1405,-60.7362 L -48.0628,-60.4974
 L -48.0158,-60.2507 L -48,-60 L -48.0158,-59.7493 L -48.0628,-59.5026 L -48.1405,-59.2637 L -48.2474,-59.0365
 L -48.382,-58.8244 L -48.5421,-58.6309 L -48.7252,-58.459 L -48.9284,-58.3113 L -49.1485,-58.1903 L -49.382,-58.0979
 L -49.6252,-58.0354 L -49.8744,-58.0039 z
M 20,97 L 40,97 L 40,100 L 55,100 L 55,97 L 60,97
 L 60,-0 L 55,-0 L 55,-3 L 40,-3 L 40,-0 L 20,-0
 L 20,-3 L 5,-3 L 5,-0 L 0,-0 L 0,97 L 5,97
 L 5,100 L 20,100 z
" stroke="black" fill="lightgray" stroke-width="0.5"/></svg>
